…
``` r
data <- iris %>% tibble
```

### Create, modify and delete columns

`mutate` is the command to deal with whole column operations. You can
easily add or delete columns

``` r
data %>%
  mutate(Genus = "Iris data set", Sepal.Length = NULL)
```

    ## # A tibble: 150 × 5
    ##    Sepal.Width Petal.Length Petal.Width Species Genus        
    ##          <dbl>        <dbl>       <dbl> <fct>   <chr>        
    ##  1         3.5          1.4         0.2 setosa  Iris data set
    ##  2         3            1.4         0.2 setosa  Iris data set
    ##  3         3.2          1.3         0.2 setosa  Iris data set
    ##  4         3.1          1.5         0.2 setosa  Iris data set
    ##  5         3.6          1.4         0.2 setosa  Iris data set
    ##  6         3.9          1.7         0.4 setosa  Iris data set
    ##  7         3.4          1.4         0.3 setosa  Iris data set
    ##  8         3.4          1.5         0.2 setosa  Iris data set
    ##  9         2.9          1.4         0.2 setosa  Iris data set
    ## 10         3.1          1.5         0.1 setosa  Iris data set
    ## # ℹ 140 more rows

Additionally it is possible to create new columns or modify them:

``` r
data %>% 
  mutate(isbig = Sepal.Length > 4)
```

    ## # A tibble: 150 × 6
    ##    Sepal.Length Sepal.Width Petal.Length Petal.Width Species isbig
    ##           <dbl>       <dbl>        <dbl>       <dbl> <fct>   <lgl>
    ##  1          5.1         3.5          1.4         0.2 setosa  TRUE 
    ##  2          4.9         3            1.4         0.2 setosa  TRUE 
    ##  3          4.7         3.2          1.3         0.2 setosa  TRUE 
    ##  4          4.6         3.1          1.5         0.2 setosa  TRUE 
    ##  5          5           3.6          1.4         0.2 setosa  TRUE 
    ##  6          5.4         3.9          1.7         0.4 setosa  TRUE 
    ##  7          4.6         3.4          1.4         0.3 setosa  TRUE 
    ##  8          5           3.4          1.5         0.2 setosa  TRUE 
    ##  9          4.4         2.9          1.4         0.2 setosa  TRUE 
    ## 10          4.9         3.1          1.5         0.1 setosa  TRUE 
    ## # ℹ 140 more rows
…
- Create a tibble with Sepal leave data only, but numbers are in inches
- Create a tibble, with an additional column `bigger than mean`, which
  shows if a Sepal leave is wider than the mean value

### Filtering

`filter`is the command to filter data

``` r
data %>%
  filter(Species == "virginica")
```

    ## # A tibble: 50 × 5
    ##    Sepal.Length Sepal.Width Petal.Length Petal.Width Species  
    ##           <dbl>       <dbl>        <dbl>       <dbl> <fct>    
    ##  1          6.3         3.3          6           2.5 virginica
    ##  2          5.8         2.7          5.1         1.9 virginica
    ##  3          7.1         3            5.9         2.1 virginica
    ##  4          6.3         2.9          5.6         1.8 virginica
    ##  5          6.5         3            5.8         2.2 virginica
    ##  6          7.6         3            6.6         2.1 virginica
    ##  7          4.9         2.5          4.5         1.7 virginica
    ##  8          7.3         2.9          6.3         1.8 virginica
    ##  9          6.7         2.5          5.8         1.8 virginica
    ## 10          7.2         3.6          6.1         2.5 virginica
    ## # ℹ 40 more rows

Here you really need to pay attention about the datatype. Also it is
important ot use the comparison `==` and not the simple equality sign
`=`

Another suitable function is `select` which concentrates the output to
specific coloums:

``` r
data %>%
  select(Petal.Length)
```

    ## # A tibble: 150 × 1
    ##    Petal.Length
    ##           <dbl>
    ##  1          1.4
    ##  2          1.4
    ##  3          1.3
    ##  4          1.5
    ##  5          1.4
    ##  6          1.7
    ##  7          1.4
    ##  8          1.5
    ##  9          1.4
    ## 10          1.5
    ## # ℹ 140 more rows

Both together can be used to limit the output:

``` r
data %>%
  filter(Species == "setosa") %>%
  select(Petal.Length, Petal.Width)
```

    ## # A tibble: 50 × 2
    ##    Petal.Length Petal.Width
    ##           <dbl>       <dbl>
    ##  1          1.4         0.2
    ##  2          1.4         0.2
    ##  3          1.3         0.2
    ##  4          1.5         0.2
    ##  5          1.4         0.2
    ##  6          1.7         0.4
    ##  7          1.4         0.3
    ##  8          1.5         0.2
    ##  9          1.4         0.2
    ## 10          1.5         0.1
    ## # ℹ 40 more rows
…
- What are the dimensions of the WDI?
- How could we pivot the data?
- How is the following data managed?

``` r
wdi_data_piv <- wdi_data %>%
  pivot_longer(`1960`:`2021`,
               names_to = "Year",
               values_drop_na = TRUE) %>%
  mutate(Year = as.integer(Year)) %>%
  pivot_wider(id_cols = c("Country Code", "Year"), names_from = "Indicator Code")
wdi_data_piv
```

    ## # A tibble: 16,430 × 1,479
    ##    `Country Code`  Year EG.CFT.ACCS.ZS EG.CFT.ACCS.RU.ZS EG.CFT.ACCS.UR.ZS
    ##    <chr>          <int>          <dbl>             <dbl>             <dbl>
    ##  1 AFE             2000           11.6              3.55              32.6
    ##  2 AFE             2001           11.9              3.71              33.0
    ##  3 AFE             2002           12.3              3.90              33.4
    ##  4 AFE             2003           12.6              4.09              33.8
    ##  5 AFE             2004           13.0              4.31              34.2
    ##  6 AFE             2005           13.4              4.53              34.7
    ##  7 AFE             2006           13.8              4.76              35.2
    ##  8 AFE             2007           14.3              5.00              35.7
    ##  9 AFE             2008           14.7              5.24              36.1
    ## 10 AFE             2009           15.1              5.48              36.4
    ## # ℹ 16,420 more rows
    ## # ℹ 1,474 more variables: EG.ELC.ACCS.ZS <dbl>, EG.ELC.ACCS.RU.ZS <dbl>,
    ## #   EG.ELC.ACCS.UR.ZS <dbl>, NY.ADJ.NNTY.KD.ZG <dbl>, NY.ADJ.NNTY.KD <dbl>,
    ## #   NY.ADJ.NNTY.CD <dbl>, NY.ADJ.NNTY.PC.KD.ZG <dbl>, NY.ADJ.NNTY.PC.KD <dbl>,
    ## #   NY.ADJ.NNTY.PC.CD <dbl>, NY.ADJ.SVNX.GN.ZS <dbl>, NY.ADJ.SVNG.GN.ZS <dbl>,
    ## #   NY.ADJ.DCO2.GN.ZS <dbl>, NY.ADJ.DKAP.GN.ZS <dbl>, NY.ADJ.AEDU.GN.ZS <dbl>,
    ## #   NY.ADJ.DNGY.GN.ZS <dbl>, NY.ADJ.ICTR.GN.ZS <dbl>, …
…
