…
``` r
wdi_data_piv <- wdi_data_piv_long %>%
  pivot_wider(id_cols = c('Country Code', 'Year'), names_from = 'Indicator Code')
```

This pivoted data is now tidy for exploration and plotting. First we
want to find a nice indicator in the data to dive deeper into.

``` r
print(wdi_data %>%
  select(`Indicator Code`, `Indicator Name`) %>%
  filter(str_detect(`Indicator Name`, 'CO2 emissions')), n=30)
```

    ## # A tibble: 4,256 × 2
    ##    `Indicator Code`     `Indicator Name`                                        
    ##    <chr>                <chr>                                                   
    ##  1 EN.ATM.CO2E.KD.GD    CO2 emissions (kg per 2015 US$ of GDP)                  
    ##  2 EN.ATM.CO2E.PP.GD.KD CO2 emissions (kg per 2017 PPP $ of GDP)                
    ##  3 EN.ATM.CO2E.PP.GD    CO2 emissions (kg per PPP $ of GDP)                     
    ##  4 EN.ATM.CO2E.KT       CO2 emissions (kt)                                      
    ##  5 EN.ATM.CO2E.PC       CO2 emissions (metric tons per capita)                  
    ##  6 EN.CO2.ETOT.ZS       CO2 emissions from electricity and heat production, tot…
    ##  7 EN.ATM.CO2E.GF.ZS    CO2 emissions from gaseous fuel consumption (% of total)
    ##  8 EN.ATM.CO2E.GF.KT    CO2 emissions from gaseous fuel consumption (kt)        
    ##  9 EN.ATM.CO2E.LF.ZS    CO2 emissions from liquid fuel consumption (% of total) 
    ## 10 EN.ATM.CO2E.LF.KT    CO2 emissions from liquid fuel consumption (kt)         
    ## 11 EN.CO2.MANF.ZS       CO2 emissions from manufacturing industries and constru…
    ## 12 EN.CO2.OTHX.ZS       CO2 emissions from other sectors, excluding residential…
    ## 13 EN.CO2.BLDG.ZS       CO2 emissions from residential buildings and commercial…
    ## 14 EN.ATM.CO2E.SF.ZS    CO2 emissions from solid fuel consumption (% of total)  
    ## 15 EN.ATM.CO2E.SF.KT    CO2 emissions from solid fuel consumption (kt)          
    ## 16 EN.CO2.TRAN.ZS       CO2 emissions from transport (% of total fuel combustio…
    ## 17 EN.ATM.CO2E.KD.GD    CO2 emissions (kg per 2015 US$ of GDP)                  
    ## 18 EN.ATM.CO2E.PP.GD.KD CO2 emissions (kg per 2017 PPP $ of GDP)                
    ## 19 EN.ATM.CO2E.PP.GD    CO2 emissions (kg per PPP $ of GDP)                     
    ## 20 EN.ATM.CO2E.KT       CO2 emissions (kt)                                      
    ## 21 EN.ATM.CO2E.PC       CO2 emissions (metric tons per capita)                  
    ## 22 EN.CO2.ETOT.ZS       CO2 emissions from electricity and heat production, tot…
    ## 23 EN.ATM.CO2E.GF.ZS    CO2 emissions from gaseous fuel consumption (% of total)
    ## 24 EN.ATM.CO2E.GF.KT    CO2 emissions from gaseous fuel consumption (kt)        
    ## 25 EN.ATM.CO2E.LF.ZS    CO2 emissions from liquid fuel consumption (% of total) 
    ## 26 EN.ATM.CO2E.LF.KT    CO2 emissions from liquid fuel consumption (kt)         
    ## 27 EN.CO2.MANF.ZS       CO2 emissions from manufacturing industries and constru…
    ## 28 EN.CO2.OTHX.ZS       CO2 emissions from other sectors, excluding residential…
    ## 29 EN.CO2.BLDG.ZS       CO2 emissions from residential buildings and commercial…
    ## 30 EN.ATM.CO2E.SF.ZS    CO2 emissions from solid fuel consumption (% of total)  
    ## # ℹ 4,226 more rows
…
    ## Warning: Using an external vector in selections was deprecated in tidyselect 1.1.0.
    ## ℹ Please use `all_of()` or `any_of()` instead.
    ##   # Was:
    ##   data %>% select(chosenCode)
    ## 
    ##   # Now:
    ##   data %>% select(all_of(chosenCode))
    ## 
    ## See <https://tidyselect.r-lib.org/reference/faq-external-vector.html>.
    ## This warning is displayed once every 8 hours.
    ## Call `lifecycle::last_lifecycle_warnings()` to see where this warning was
    ## generated.

    ## # A tibble: 62 × 3
    ##    `Country Code`  Year EN.ATM.CO2E.KT
    ##    <chr>          <int>          <dbl>
    ##  1 DEU             2000        830284.
    ##  2 DEU             2001        847678.
    ##  3 DEU             2002        833382.
    ##  4 DEU             2003        836794.
    ##  5 DEU             2004        821074.
    ##  6 DEU             2005        802383.
    ##  7 DEU             2006        814413.
    ##  8 DEU             2007        783803 
    ##  9 DEU             2008        789690.
    ## 10 DEU             2009        734806.
    ## # ℹ 52 more rows

Sometimes it is easier for further plotting to rename the axes:

``` r
wdi_data_piv %>%
  filter(`Country Code` == "DEU") %>%
  select(Year, chosenCode) %>%
  rename("Value" = chosenCode)
```

    ## # A tibble: 62 × 2
    ##     Year   Value
    ##    <int>   <dbl>
    ##  1  2000 830284.
    ##  2  2001 847678.
    ##  3  2002 833382.
    ##  4  2003 836794.
    ##  5  2004 821074.
    ##  6  2005 802383.
    ##  7  2006 814413.
    ##  8  2007 783803 
    ##  9  2008 789690.
    ## 10  2009 734806.
    ## # ℹ 52 more rows
…
